<svg viewBox="0 0 14.76 26.76">
  <g data-name="Layer 2">
    <g data-name="Layer 1">
      <rect width="14" height="26" x=".38" y=".38" fill="none" stroke="#fff" stroke-miterlimit="10" stroke-width=".76" rx="6.99" ry="6.99"/>
      <circle cx="7.38" cy="7.32" r="1.5" fill="#fff"/>
    </g>
  </g>
</svg>
